<svg width="110" height="75" viewBox="0 0 110 75" version="1.1" xmlns="http://www.w3.org/2000/svg" xmlns:xlink="http://www.w3.org/1999/xlink">
<title>Group</title>
<desc>Created using Figma</desc>
<g id="Canvas" transform="translate(2066 -7739)">
<g id="Group">
<g id="Group">
<g id="Vector">
<use xlink:href="#path0_fill" transform="translate(-2065.72 7739.96)"/>
</g>
</g>
</g>
</g>
<defs>
<path id="path0_fill" d="M 81.2759 18.6597C 80.6187 18.6597 79.9615 18.6597 79.359 18.7144C 77.2778 13.7348 73.8275 9.30247 69.3912 6.01925C 64.0787 2.07938 57.7256 0 50.9891 0C 34.1753 0 20.4285 13.4065 20.4285 29.9321C 20.4285 30.0962 20.4285 30.2604 20.4285 30.4245C 9.03674 31.0812 0 40.3837 0 51.7655C 0 63.5851 9.8035 73.1612 21.8525 73.1612L 81.2759 73.1612C 96.611 73.1612 109.098 60.9585 109.098 45.9104C 109.098 30.8623 96.611 18.6597 81.2759 18.6597ZM 81.2759 66.5947L 21.8525 66.5947C 13.4182 66.5947 6.57218 59.9188 6.57218 51.7655C 6.57218 43.6122 13.4182 36.9363 21.8525 36.9363C 22.3454 36.9363 22.9479 36.991 23.6598 37.0457C 24.7004 37.1552 25.6863 36.8268 26.3982 36.0607C 27.1102 35.3494 27.4388 34.3097 27.2745 33.3247C 27.1102 32.1756 27.0007 31.0265 27.0007 29.9321C 27.0007 17.018 37.79 6.56645 50.9891 6.56645C 61.5046 6.56645 70.9795 13.4065 73.9918 23.2562C 74.4847 24.8431 76.073 25.828 77.6612 25.5544C 78.8661 25.3356 80.071 25.2808 81.2759 25.2808C 92.9963 25.2808 102.526 34.5833 102.526 45.9651C 102.526 57.2923 92.9963 66.5947 81.2759 66.5947Z"/>
</defs>
</svg>
