<?xml version="1.0" encoding="utf-8"?>
<!-- Generator: Adobe Illustrator 22.0.1, SVG Export Plug-In . SVG Version: 6.00 Build 0)  -->
<svg version="1.1" id="Слой_1" xmlns="http://www.w3.org/2000/svg" xmlns:xlink="http://www.w3.org/1999/xlink" x="0px" y="0px"
	 viewBox="0 0 24 20" style="enable-background:new 0 0 24 20;" xml:space="preserve">
<style type="text/css">
	.st0{fill:#D0021B;}
</style>
<path id="path0_stroke_1_" class="st0" d="M23.7,7.9c0.4-0.4,0.4-1,0-1.4c-0.4-0.4-1-0.4-1.4,0L23.7,7.9z M12,19l-0.7,0.7
	c0.2,0.2,0.5,0.3,0.7,0.3s0.5-0.1,0.7-0.3L12,19z M1.7,6.6c-0.4-0.4-1-0.4-1.4,0c-0.4,0.4-0.4,1,0,1.4L1.7,6.6z M22.3,6.6l-11,11.7
	l1.5,1.4l11-11.7L22.3,6.6z M12.7,18.3L1.7,6.6L0.3,7.9l11,11.7L12.7,18.3z"/>
<path id="path0_stroke" class="st0" d="M23.7,1.6c0.4-0.4,0.4-1,0-1.4c-0.4-0.4-1-0.4-1.4,0L23.7,1.6z M12,12.7l-0.7,0.7
	c0.2,0.2,0.5,0.3,0.7,0.3s0.5-0.1,0.7-0.3L12,12.7z M1.7,0.3c-0.4-0.4-1-0.4-1.4,0c-0.4,0.4-0.4,1,0,1.4L1.7,0.3z M22.3,0.3L11.3,12
	l1.5,1.4l11-11.7L22.3,0.3z M12.7,12L1.7,0.3L0.3,1.6l11,11.7L12.7,12z"/>
</svg>
