<svg width="18" height="18" viewBox="0 0 18 18" version="1.1" xmlns="http://www.w3.org/2000/svg" xmlns:xlink="http://www.w3.org/1999/xlink">
<title>Group</title>
<desc>Created using Figma</desc>
<g id="Canvas" transform="translate(2455 -2980)">
<g id="Group">
<g id="Vector">
<use xlink:href="#path0_stroke" transform="translate(-2454 2981)" fill="#D0021B"/>
</g>
<g id="Vector">
<use xlink:href="#path1_stroke" transform="translate(-2448.76 2986.24)" fill="#D0021B"/>
</g>
<g id="Vector">
<use xlink:href="#path2_stroke" transform="translate(-2448.76 2986.24)" fill="#D0021B"/>
</g>
</g>
</g>
<defs>
<path id="path0_stroke" d="M 15 8C 15 11.866 11.866 15 8 15L 8 17C 12.9706 17 17 12.9706 17 8L 15 8ZM 8 15C 4.13401 15 1 11.866 1 8L -1 8C -1 12.9706 3.02944 17 8 17L 8 15ZM 1 8C 1 4.13401 4.13401 1 8 1L 8 -1C 3.02944 -1 -1 3.02944 -1 8L 1 8ZM 8 1C 11.866 1 15 4.13401 15 8L 17 8C 17 3.02944 12.9706 -1 8 -1L 8 1Z"/>
<path id="path1_stroke" d="M 0.707107 -0.707107C 0.316583 -1.09763 -0.316583 -1.09763 -0.707107 -0.707107C -1.09763 -0.316583 -1.09763 0.316583 -0.707107 0.707107L 0.707107 -0.707107ZM 4.81013 6.22435C 5.20066 6.61487 5.83382 6.61487 6.22435 6.22435C 6.61487 5.83382 6.61487 5.20066 6.22435 4.81013L 4.81013 6.22435ZM -0.707107 0.707107L 4.81013 6.22435L 6.22435 4.81013L 0.707107 -0.707107L -0.707107 0.707107Z"/>
<path id="path2_stroke" d="M 6.22435 0.707107C 6.61487 0.316583 6.61487 -0.316583 6.22435 -0.707107C 5.83382 -1.09763 5.20066 -1.09763 4.81013 -0.707107L 6.22435 0.707107ZM -0.707107 4.81013C -1.09763 5.20066 -1.09763 5.83382 -0.707107 6.22435C -0.316583 6.61487 0.316583 6.61487 0.707107 6.22435L -0.707107 4.81013ZM 4.81013 -0.707107L -0.707107 4.81013L 0.707107 6.22435L 6.22435 0.707107L 4.81013 -0.707107Z"/>
</defs>
</svg>
