<svg width="42" height="42" viewBox="0 0 42 42" version="1.1" xmlns="http://www.w3.org/2000/svg" xmlns:xlink="http://www.w3.org/1999/xlink">
<title>Group</title>
<desc>Created using Figma</desc>
<g id="Canvas" transform="translate(-1863 -12283)">
<g id="Group">
<g id="Group">
<g id="Group">
<g id="Group">
<g id="Vector">
<use xlink:href="#path0_stroke" transform="translate(1864 12288)"/>
</g>
</g>
<g id="Group">
<g id="Vector">
<use xlink:href="#path1_stroke" transform="translate(1876.67 12284)"/>
</g>
</g>
<g id="Group">
<g id="Vector">
<use xlink:href="#path1_stroke" transform="translate(1890 12284)"/>
</g>
</g>
</g>
<g id="Group">
<g id="Vector">
<use xlink:href="#path2_stroke" transform="translate(1872 12299.3)"/>
</g>
<g id="Vector">
<use xlink:href="#path2_stroke" transform="translate(1882 12299.3)"/>
</g>
<g id="Vector">
<use xlink:href="#path2_stroke" transform="translate(1892 12299.3)"/>
</g>
<g id="Vector">
<use xlink:href="#path2_stroke" transform="translate(1872 12309.3)"/>
</g>
<g id="Vector">
<use xlink:href="#path2_stroke" transform="translate(1882 12309.3)"/>
</g>
</g>
</g>
<g id="Group">
<g id="Group">
<g id="Group">
<g id="Group">
<g id="Vector">
<use xlink:href="#path3_stroke" transform="translate(1896.67 12312.7)"/>
</g>
</g>
<g id="Group">
<g id="Vector">
<use xlink:href="#path4_stroke" transform="translate(1896.67 12316.7)"/>
</g>
</g>
<g id="Vector">
<use xlink:href="#path5_stroke" transform="translate(1889.33 12309.3)"/>
</g>
</g>
</g>
</g>
</g>
</g>
<defs>
<path id="path0_stroke" d="M 22 35.6667C 22.5523 35.6667 23 35.219 23 34.6667C 23 34.1144 22.5523 33.6667 22 33.6667L 22 35.6667ZM 37.6667 17.3333C 37.6667 17.8856 38.1144 18.3333 38.6667 18.3333C 39.219 18.3333 39.6667 17.8856 39.6667 17.3333L 37.6667 17.3333ZM 22 33.6667L 1.33333 33.6667L 1.33333 35.6667L 22 35.6667L 22 33.6667ZM 1.33333 33.6667C 1.15228 33.6667 1 33.5144 1 33.3333L -1 33.3333C -1 34.619 0.0477153 35.6667 1.33333 35.6667L 1.33333 33.6667ZM 1 33.3333L 1 1.33333L -1 1.33333L -1 33.3333L 1 33.3333ZM 1 1.33333C 1 1.15228 1.15228 1 1.33333 1L 1.33333 -1C 0.0477153 -1 -1 0.0477153 -1 1.33333L 1 1.33333ZM 1.33333 1L 37.3333 1L 37.3333 -1L 1.33333 -1L 1.33333 1ZM 37.3333 1C 37.5144 1 37.6667 1.15228 37.6667 1.33333L 39.6667 1.33333C 39.6667 0.0477153 38.619 -1 37.3333 -1L 37.3333 1ZM 37.6667 1.33333L 37.6667 17.3333L 39.6667 17.3333L 39.6667 1.33333L 37.6667 1.33333Z"/>
<path id="path1_stroke" d="M 1 0C 1 -0.552285 0.552285 -1 0 -1C -0.552285 -1 -1 -0.552285 -1 0L 1 0ZM -1 6.66667C -1 7.21895 -0.552285 7.66667 0 7.66667C 0.552285 7.66667 1 7.21895 1 6.66667L -1 6.66667ZM -1 0L -1 6.66667L 1 6.66667L 1 0L -1 0Z"/>
<path id="path2_stroke" d="M 0 0L 0 -1C -0.552285 -1 -1 -0.552285 -1 2.22045e-16L 0 0ZM 2.66667 0L 3.66667 0C 3.66667 -0.552285 3.21895 -1 2.66667 -1L 2.66667 0ZM 2.66667 2.66667L 2.66667 3.66667C 3.21895 3.66667 3.66667 3.21895 3.66667 2.66667L 2.66667 2.66667ZM 0 2.66667L -1 2.66667C -1 3.21895 -0.552285 3.66667 2.22045e-16 3.66667L 0 2.66667ZM 0 1L 2.66667 1L 2.66667 -1L 0 -1L 0 1ZM 1.66667 0L 1.66667 2.66667L 3.66667 2.66667L 3.66667 0L 1.66667 0ZM 2.66667 1.66667L 0 1.66667L 0 3.66667L 2.66667 3.66667L 2.66667 1.66667ZM 1 2.66667L 1 0L -1 0L -1 2.66667L 1 2.66667Z"/>
<path id="path3_stroke" d="M 1 0C 1 -0.552285 0.552285 -1 0 -1C -0.552285 -1 -1 -0.552285 -1 0L 1 0ZM -1 4C -1 4.55228 -0.552285 5 0 5C 0.552285 5 1 4.55228 1 4L -1 4ZM -1 0L -1 4L 1 4L 1 0L -1 0Z"/>
<path id="path4_stroke" d="M 4 1C 4.55228 1 5 0.552285 5 0C 5 -0.552285 4.55228 -1 4 -1L 4 1ZM 0 -1C -0.552285 -1 -1 -0.552285 -1 0C -1 0.552285 -0.552285 1 0 1L 0 -1ZM 4 -1L 0 -1L 0 1L 4 1L 4 -1Z"/>
<path id="path5_stroke" d="M 13.6667 7.33333C 13.6667 10.8311 10.8311 13.6667 7.33333 13.6667L 7.33333 15.6667C 11.9357 15.6667 15.6667 11.9357 15.6667 7.33333L 13.6667 7.33333ZM 7.33333 13.6667C 3.83553 13.6667 1 10.8311 1 7.33333L -1 7.33333C -1 11.9357 2.73096 15.6667 7.33333 15.6667L 7.33333 13.6667ZM 1 7.33333C 1 3.83553 3.83553 1 7.33333 1L 7.33333 -1C 2.73096 -1 -1 2.73096 -1 7.33333L 1 7.33333ZM 7.33333 1C 10.8311 1 13.6667 3.83553 13.6667 7.33333L 15.6667 7.33333C 15.6667 2.73096 11.9357 -1 7.33333 -1L 7.33333 1Z"/>
</defs>
</svg>
