<svg width="24" height="24" viewBox="0 0 24 24" version="1.1" xmlns="http://www.w3.org/2000/svg" xmlns:xlink="http://www.w3.org/1999/xlink">
<title>Group</title>
<desc>Created using Figma</desc>
<g id="Canvas" transform="translate(1802 -4734)">
<g id="Group">
<g id="Group">
<g id="Group">
<g id="Group">
<g id="Vector">
<use xlink:href="#path0_stroke" transform="translate(-1801 4737.2)"/>
</g>
</g>
<g id="Group">
<g id="Vector">
<use xlink:href="#path1_stroke" transform="translate(-1794.03 4735)"/>
</g>
</g>
<g id="Group">
<g id="Vector">
<use xlink:href="#path1_stroke" transform="translate(-1786.7 4735)"/>
</g>
</g>
</g>
<g id="Group">
<g id="Vector">
<use xlink:href="#path2_stroke" transform="translate(-1796.6 4743.43)"/>
</g>
<g id="Vector">
<use xlink:href="#path2_stroke" transform="translate(-1791.1 4743.43)"/>
</g>
<g id="Vector">
<use xlink:href="#path2_stroke" transform="translate(-1785.6 4743.43)"/>
</g>
<g id="Vector">
<use xlink:href="#path2_stroke" transform="translate(-1796.6 4748.93)"/>
</g>
<g id="Vector">
<use xlink:href="#path2_stroke" transform="translate(-1791.1 4748.93)"/>
</g>
</g>
</g>
<g id="Group">
<g id="Group">
<g id="Group">
<g id="Group">
<g id="Vector">
<use xlink:href="#path3_stroke" transform="translate(-1783.03 4750.77)"/>
</g>
</g>
<g id="Group">
<g id="Vector">
<use xlink:href="#path4_stroke" transform="translate(-1783.03 4752.97)"/>
</g>
</g>
<g id="Vector">
<use xlink:href="#path5_stroke" transform="translate(-1787.07 4748.93)"/>
</g>
</g>
</g>
</g>
</g>
</g>
<defs>
<path id="path0_stroke" d="M 12.1 20.0667C 12.6523 20.0667 13.1 19.619 13.1 19.0667C 13.1 18.5144 12.6523 18.0667 12.1 18.0667L 12.1 20.0667ZM 20.2667 9.53333C 20.2667 10.0856 20.7144 10.5333 21.2667 10.5333C 21.819 10.5333 22.2667 10.0856 22.2667 9.53333L 20.2667 9.53333ZM 12.1 18.0667L 0.733333 18.0667L 0.733333 20.0667L 12.1 20.0667L 12.1 18.0667ZM 0.733333 18.0667C 0.882285 18.0667 1 18.1844 1 18.3333L -1 18.3333C -1 19.289 -0.222285 20.0667 0.733333 20.0667L 0.733333 18.0667ZM 1 18.3333L 1 0.733333L -1 0.733333L -1 18.3333L 1 18.3333ZM 1 0.733333C 1 0.882285 0.882285 1 0.733333 1L 0.733333 -1C -0.222285 -1 -1 -0.222285 -1 0.733333L 1 0.733333ZM 0.733333 1L 20.5333 1L 20.5333 -1L 0.733333 -1L 0.733333 1ZM 20.5333 1C 20.3844 1 20.2667 0.882285 20.2667 0.733333L 22.2667 0.733333C 22.2667 -0.222285 21.489 -1 20.5333 -1L 20.5333 1ZM 20.2667 0.733333L 20.2667 9.53333L 22.2667 9.53333L 22.2667 0.733333L 20.2667 0.733333Z"/>
<path id="path1_stroke" d="M 1 0C 1 -0.552285 0.552285 -1 0 -1C -0.552285 -1 -1 -0.552285 -1 0L 1 0ZM -1 3.66667C -1 4.21895 -0.552285 4.66667 0 4.66667C 0.552285 4.66667 1 4.21895 1 3.66667L -1 3.66667ZM -1 0L -1 3.66667L 1 3.66667L 1 0L -1 0Z"/>
<path id="path2_stroke" d="M 0 0L 0 -1C -0.552285 -1 -1 -0.552285 -1 2.22045e-16L 0 0ZM 1.46667 0L 2.46667 0C 2.46667 -0.552285 2.01895 -1 1.46667 -1L 1.46667 0ZM 1.46667 1.46667L 1.46667 2.46667C 2.01895 2.46667 2.46667 2.01895 2.46667 1.46667L 1.46667 1.46667ZM 0 1.46667L -1 1.46667C -1 2.01895 -0.552285 2.46667 2.22045e-16 2.46667L 0 1.46667ZM 0 1L 1.46667 1L 1.46667 -1L 0 -1L 0 1ZM 0.466667 0L 0.466667 1.46667L 2.46667 1.46667L 2.46667 0L 0.466667 0ZM 1.46667 0.466667L 0 0.466667L 0 2.46667L 1.46667 2.46667L 1.46667 0.466667ZM 1 1.46667L 1 0L -1 0L -1 1.46667L 1 1.46667Z"/>
<path id="path3_stroke" d="M 1 0C 1 -0.552285 0.552285 -1 0 -1C -0.552285 -1 -1 -0.552285 -1 0L 1 0ZM -1 2.2C -1 2.75228 -0.552285 3.2 0 3.2C 0.552285 3.2 1 2.75228 1 2.2L -1 2.2ZM -1 0L -1 2.2L 1 2.2L 1 0L -1 0Z"/>
<path id="path4_stroke" d="M 2.2 1C 2.75228 1 3.2 0.552285 3.2 0C 3.2 -0.552285 2.75228 -1 2.2 -1L 2.2 1ZM 0 -1C -0.552285 -1 -1 -0.552285 -1 0C -1 0.552285 -0.552285 1 0 1L 0 -1ZM 2.2 -1L 0 -1L 0 1L 2.2 1L 2.2 -1Z"/>
<path id="path5_stroke" d="M 7.06667 4.03333C 7.06667 5.7086 5.7086 7.06667 4.03333 7.06667L 4.03333 9.06667C 6.81317 9.06667 9.06667 6.81317 9.06667 4.03333L 7.06667 4.03333ZM 4.03333 7.06667C 2.35807 7.06667 1 5.7086 1 4.03333L -1 4.03333C -1 6.81317 1.2535 9.06667 4.03333 9.06667L 4.03333 7.06667ZM 1 4.03333C 1 2.35807 2.35807 1 4.03333 1L 4.03333 -1C 1.2535 -1 -1 1.2535 -1 4.03333L 1 4.03333ZM 4.03333 1C 5.7086 1 7.06667 2.35807 7.06667 4.03333L 9.06667 4.03333C 9.06667 1.2535 6.81317 -1 4.03333 -1L 4.03333 1Z"/>
</defs>
</svg>
