<?xml version="1.0" encoding="utf-8"?>
<!-- Generator: Adobe Illustrator 22.0.1, SVG Export Plug-In . SVG Version: 6.00 Build 0)  -->
<svg version="1.1" id="Слой_1" xmlns="http://www.w3.org/2000/svg" xmlns:xlink="http://www.w3.org/1999/xlink" x="0px" y="0px"
	 viewBox="0 0 80 80" style="enable-background:new 0 0 80 80;" xml:space="preserve">
<style type="text/css">
	.st0{fill:#FFFFFF;}
</style>
<path class="st0" d="M40,0C17.9,0,0,17.9,0,40c0,22.1,17.9,40,40,40c22.1,0,40-17.9,40-40C80,17.9,62.1,0,40,0z M40,20
	c5.9,0,10.7,4.6,10.7,10.3c0,5.7-4.8,10.3-10.7,10.3c-5.9,0-10.7-4.6-10.7-10.3C29.3,24.6,34.1,20,40,20z M50.3,54.8
	c1.2,1.2,1.2,3.1,0,4.3c-1.2,1.2-3.2,1.2-4.4,0L40,53.4l-5.9,5.7c-0.6,0.6-1.4,0.9-2.2,0.9c-0.8,0-1.6-0.3-2.2-0.9
	c-1.2-1.2-1.2-3.1,0-4.3l6-5.8c-2.2-0.5-4.3-1.3-6.2-2.5c-1.5-0.9-1.9-2.8-1-4.2c0.9-1.4,2.9-1.8,4.3-1c4.4,2.7,10,2.7,14.4,0
	c1.5-0.9,3.4-0.5,4.3,1c0.9,1.4,0.5,3.3-1,4.2c-1.9,1.2-4,2-6.2,2.5L50.3,54.8z"/>
<path id="path1_fill" class="st0" d="M40,26.1c2.4,0,4.4,1.9,4.4,4.3c0,2.4-2,4.3-4.4,4.3c-2.4,0-4.4-1.9-4.4-4.3
	C35.6,28,37.5,26.1,40,26.1z"/>
</svg>
