<svg width="80" height="80" viewBox="0 0 80 80" version="1.1" xmlns="http://www.w3.org/2000/svg" xmlns:xlink="http://www.w3.org/1999/xlink">
<title>OK</title>
<desc>Created using Figma</desc>
<g id="Canvas" transform="translate(-1682 -3321)">
<g id="OK" opacity="0.800611">
<g id="Combined Shape">
<use xlink:href="#path0_fill" transform="translate(1682 3321)" fill="#FFFFFF"/>
</g>
<g id="Path">
<use xlink:href="#path1_fill" transform="translate(1717.55 3347.05)" fill="#FFFFFF"/>
</g>
</g>
</g>
<defs>
<path id="path0_fill" fill-rule="evenodd" d="M 0 40C 0 17.9087 17.9086 0 40 0C 62.0914 0 80 17.9087 80 40C 80 62.0913 62.0914 80 40 80C 17.9086 80 0 62.0913 0 40ZM 39.9729 40.6421C 45.8713 40.6421 50.666 36.0132 50.666 30.3228C 50.666 24.6301 45.8713 20 39.9729 20C 34.0757 20 29.2797 24.6301 29.2797 30.3228C 29.2797 36.0132 34.0757 40.6421 39.9729 40.6421ZM 50.536 46.585C 48.6025 47.7573 46.5033 48.5886 44.3267 49.0671L 50.3044 54.8381C 51.5289 56.0176 51.5289 57.9336 50.3044 59.1143C 49.0811 60.2952 47.0983 60.2952 45.8762 59.1143L 39.9989 53.4436L 34.1267 59.1143C 33.5144 59.7041 32.712 59.9993 31.9098 59.9993C 31.1086 59.9993 30.3076 59.7041 29.6953 59.1143C 28.472 57.9336 28.472 56.0188 29.6941 54.8381L 35.6725 49.0671C 33.4958 48.5886 31.3966 47.7561 29.4631 46.585C 27.9999 45.6943 27.5603 43.8286 28.4823 42.415C 29.4016 40.9995 31.3352 40.5732 32.801 41.4639C 37.1786 44.1221 42.8179 44.1226 47.1981 41.4639C 48.6639 40.5732 50.5968 40.9995 51.5181 42.415C 52.4401 43.8274 51.9993 45.6943 50.536 46.585Z"/>
<path id="path1_fill" fill-rule="evenodd" d="M 4.42751 0C 6.86904 0 8.85502 1.91643 8.85502 4.2732C 8.85502 6.62813 6.86904 8.54579 4.42751 8.54579C 1.9879 8.54579 0 6.62813 0 4.2732C 0 1.91643 1.9879 0 4.42751 0Z"/>
</defs>
</svg>
