{
	"LINKS": {
		"404": "404.html",
		"home": "index.html",
		"about": "about.html",
		"news": "news.html",
		"article": "article.html",
		"alloys": "alloys.html",
		"alloy": "alloy.html",
		"questions": "questions.html",
		"stocks": "stocks.html",
		"ui": "ui.html"
	},
	"PAGECLASS": {
		"ClassHome": "home",
		"ClassUi": "ui"
	},
	"PAGES": [
		{
			"name": "Главная страница",
			"href": "index.html"
		},
		{
			"name": "О нас",
			"href": "about.html"
		},
		{
			"name": "Новости",
			"href": "news.html"
		},
		{
			"name": "Статья",
			"href": "article.html"
		},
		{
			"name": "Сплавы",
			"href": "alloys.html"
		},
		{
			"name": "Страница сплава",
			"href": "alloy.html"
		},
		{
			"name": "Вопросы",
			"href": "questions.html"
		},
		{
			"name": "Акции",
			"href": "stocks.html"
		},
		{
			"name": "Страница 404",
			"href": "404.html"
		},
		{
			"name": "UI",
			"href": "ui.html"
		}
	],
	"SOCIAL": [
		{
			"name": "facebook",
			"href": "facebook.com"
		},
		{
			"name": "instagram",
			"href": "instagram.com"
		},
		{
			"name": "vk",
			"href": "#vk"
		},
		{
			"name": "youtube",
			"href": "youtube.com"
		},
		{
			"name": "ok",
			"href": "ok.ru"
		}
	],
	"TITLE": {
		"home": "Андреналин Алтай | Главная страница",
		"about": "Андреналин Алтай | О нас",
		"news": "Андреналин Алтай | Наши новости",
		"article": "Андреналин Алтай | Страница статьи",
		"error": "Андреналин Алтай | Ошибка 404",
		"questions": "Андреналин Алтай | FAQ",
		"stocks": "Андреналин Алтай | Акции",
		"alloys": "Андреналин Алтай | Сплавы",
		"alloy": "Андреналин Алтай | Страница сплава",
		"ui": "Страница UI"
	}
}